# CAMIPRO
E0952884
# Emplacement
S.13
# Produit
00415660
222222222
00415682
S.20
00415659
00415661
00415602
# Emplacement en double (erreur)
S.15
S.15
00282874
00415602
00415661
# Produit aussi
9999-9999
